<svg xmlns="http://www.w3.org/2000/svg" xmlns:xlink="http://www.w3.org/1999/xlink" width="98" height="64" viewBox="0 0 98 64">
    <defs>
        <rect id="b" width="280" height="222" rx="10"/>
        <filter id="a" width="119.6%" height="124.8%" x="-9.8%" y="-12.4%" filterUnits="objectBoundingBox">
            <feMorphology in="SourceAlpha" radius="2.5" result="shadowSpreadOuter1"/>
            <feOffset in="shadowSpreadOuter1" result="shadowOffsetOuter1"/>
            <feGaussianBlur in="shadowOffsetOuter1" result="shadowBlurOuter1" stdDeviation="10"/>
            <feColorMatrix in="shadowBlurOuter1" values="0 0 0 0 0 0 0 0 0 0 0 0 0 0 0 0 0 0 0.185546875 0"/>
        </filter>
    </defs>
    <g fill="none" fill-rule="nonzero">
        <g transform="translate(-91 -40)">
            <use fill="#000" filter="url(#a)" xlink:href="#b"/>
            <use fill="#30C6C6" xlink:href="#b"/>
        </g>
        <g fill="#FFF">
            <path d="M74.656 52.85a7.182 7.182 0 0 0 1.42-4.294c0-3.981-3.24-7.22-7.22-7.22-3.982 0-7.221 3.239-7.221 7.22 0 1.611.53 3.1 1.426 4.303-3.57 1.56-6.072 5.123-6.072 9.262V64h23.758v-1.88c0-4.145-2.511-7.714-6.091-9.27zM34.67 52.85a7.182 7.182 0 0 0 1.42-4.294c0-3.981-3.24-7.22-7.22-7.22-3.982 0-7.221 3.239-7.221 7.22 0 1.611.53 3.1 1.426 4.304-3.57 1.56-6.072 5.123-6.072 9.26V64h23.758v-1.88c0-4.145-2.51-7.714-6.091-9.27zM26.581 0v26.077H34.1v11.184l11.184-11.184h19.26V0H26.58zm30.444 18.55H34.098v-3.76h22.927v3.76zm0-7.518H34.098V7.273h22.927v3.759z"/>
            <path d="M68.301 7.517v22.319H46.84l-3.758 3.758h5.266l11.184 11.184V33.594h12.53V7.517z"/>
        </g>
    </g>
</svg>
